{
    "LocalDependencies": [],
    "LuaDependencies": [
        "test.test2",
        "test1"
    ],
    "OtherDependencies": [],
    "timestamp": "1523997516",
    "version_info": {
        "build": 0,
        "major": 6,
        "minor": 0
    }
}